<svg xmlns="http://www.w3.org/2000/svg" width="180" height="120" xmlns:xlink="http://www.w3.org/1999/xlink" viewBox="0 0 179.99999 120">
  <g>
    <path fill="#d6edf2" d="M0 0h180v100H0z"/>
    <g transform="translate(0 -562.4)">
      <path fill="#94a1b4" d="M35 602.36218h50v60H35z"/>
      <g id="a">
        <path fill="#544454" stroke-miterlimit="1.7" d="M42 611.36218h14v11.99998H42z" stroke-linecap="square"/>
        <path fill="none" fill-rule="evenodd" stroke="#baabbf" d="M42 617.3622h14m-7-6v12"/>
        <path fill="none" fill-rule="evenodd" stroke="#e6d8e4" d="M42 611.36222v11.99998h14v-11.99998z"/>
      </g>
      <g>
        <path fill="#544454" d="M41 633.36218h21v20.00002H41z"/>
        <path fill="none" stroke="#baabbf" d="M41 643.3622h21m-10.5-10v19.99998"/>
        <path fill="none" stroke="#e6d8e4" d="M41 633.3622v20h21v-20z"/>
      </g>
      <path fill="#c5bccb" d="M68.5 632.36218h13v26.99998h-13z"/>
      <path fill="none" stroke="#d5d5da" d="M68.5 632.36218v27h13v-27z"/>
      <path fill="#f0f0f2" fill-rule="evenodd" d="M66 659.3622v3h18v-3z"/>
      <path fill="#ded9e2" d="M71 635.36218h3v9h-3zm5 0h3v9h-3zm-5 12h3v9h-3zm5 0h3v9h-3z"/>
      <circle cx="80" cy="645.36218" r=".71274" fill="#dbcddc"/>
      <use width="100%" height="100%" transform="translate(22)" xlink:href="#a"/>
      <path fill="#7c809e" fill-rule="evenodd" d="M30 602.3622h60l-30-13z"/>
    </g>
    <path fill="#f3f6f9" d="M49.8126 14.77482c0-5.41938-4.3933-9.81262-9.8126-9.81262H20.37478c-5.4193 0-9.8126 4.39324-9.8126 9.81262 0 5.41937 4.3933 9.8126 9.8126 9.8126H40c5.4193 0 9.8126-4.3932 9.8126-9.8126zM119.62522.1496c0-5.41938-4.3933-9.81262-9.8126-9.81262H90.18738c-5.4193 0-9.8126 4.39324-9.8126 9.81262 0 5.41937 4.3933 9.8126 9.8126 9.8126h19.6252c5.41932 0 9.81262-4.3932 9.81262-9.8126zm70.18738 24.62522c0-5.41938-4.3933-9.81262-9.8126-9.81262h-19.62522c-5.4193 0-9.8126 4.39324-9.8126 9.81262 0 5.41937 4.3933 9.8126 9.8126 9.8126H180c5.4193 0 9.8126-4.3932 9.8126-9.8126z"/>
    <g transform="translate(0 -562.4)">
      <circle cx="39.5" cy="658.36218" r="5.5" fill="#23623a"/>
      <circle cx="34.5" cy="659.86218" r="5.5" fill="#22794e"/>
      <circle cx="53" cy="658.36218" r="5.5" fill="#2e7f57"/>
      <circle cx="49" cy="660.36218" r="5.5" fill="#34a060"/>
      <circle cx="56.5" cy="660.36218" r="5.5" fill="#3b7245"/>
      <circle cx="44" cy="661.36218" r="5.5" fill="#388a50"/>
    </g>
  </g>
  <g transform="translate(0 -562.4)">
    <path fill="none" stroke="#312743" stroke-width="1.25" d="M122.73098 641.2796c-.64082 2.54115-1.87826 4.33102-1.12696 4.57408" stroke-linecap="round" stroke-linejoin="round"/>
    <path fill="none" stroke="#38262f" stroke-width="2" d="M100.8671 649.4872c2.38856 3.90786.21875 11.875.21875 11.875m5.0625-11.5625c2.03125 3.375.9375 11.5625.9375 11.5625" stroke-linecap="round" stroke-linejoin="round"/>
    <path fill="none" stroke="#554128" d="M108.50064 638.57215c.64082 2.54116 1.87826 4.33103 1.12696 4.5741" stroke-linecap="round" stroke-linejoin="round"/>
    <path fill="#eed7c4" d="M99.08585 636.3622c0-2.76142 2.23857-5 5-5 2.76142 0 5 2.23858 5 5"/>
    <path fill="#38262f" d="M109.08585 647.3622c0 2.76142-2.23858 5-5 5-2.76143 0-5-2.23858-5-5"/>
    <g fill="#14293b">
      <path d="M103.58585 632.86135c-.27615 0-.5.22386-.5.5v1c0 .27614.22385.5.5.5.27614 0 .5-.22386.5-.5v-1c0-.27614-.22386-.5-.5-.5zm2 0c-.27615 0-.5.22386-.5.5v1c0 .27614.22385.5.5.5.27614 0 .5-.22386.5-.5v-1c0-.27614-.22386-.5-.5-.5z"/>
    </g>
    <g>
      <path fill="#aa2b15" d="M99.08585 636.36218h10v10.99998h-10z"/>
      <path fill="#d28b64" d="M99.08585 639.36218h10v1h-10zm0 2h10v1h-10zm0 2h10v1h-10zm0 2h10v1h-10zm0-8h10v1h-10z"/>
    </g>
    <path fill="none" stroke="#554128" d="M109.6276 643.14624c-.7513.24307-1.5247-1.4363-1.6573-2.60745" stroke-linecap="round" stroke-linejoin="round"/>
    <circle cx="106.08585" cy="635.36218" r=".5" fill="#e1b3d0"/>
    <g>
      <path fill="#ca8b17" d="M106.71306 635.1604l-.12775.9918.9918.12776-1.0991 11.95757c-.0576 1.1396.7039 2.12096 1.7884 2.26066 1.3694.1763 2.0297-.4213 2.3649-1.7257l1.0965-4.461c.1318-.5364.9298-.579 1.3877-.2703l-3.5709-2.2579c.458.3087.3509.8413.2703 1.3877l-.7952 5.3938c-.03525.2738-.2859.4673-.55975.432s-.4673-.2859-.43202-.5598l.5412-12.0295c.07057-.54776-.3163-1.049-.86403-1.11956l-.9918-.12776z"/>
      <path fill="#231804" d="M106.71295 635.16127l-.12775.9918-1.98362-.2555"/>
    </g>
    <path fill="none" stroke="#554128" d="M101.34172 638.6293c-2.70118 2.828-.82258 5.78155.79512 6.20163 2.92332.75913 5.10427-.93338 5.10427-.93338" stroke-linecap="round" stroke-linejoin="round"/>
    <path fill="none" stroke="#1b2134" stroke-width="2.25" d="M132.3046 649.4872c-2.38855 3.90786-.21874 11.875-.21874 11.875m-6.9942-11.5625c-2.03124 3.375-.9375 11.5625-.9375 11.5625" stroke-linecap="round" stroke-linejoin="round"/>
    <g>
      <path fill="#4b3e6c" d="M122.08585 638.3622h12v8.99996h-12z"/>
      <path fill="none" stroke="#7995cf" stroke-width="1.14109" stroke-miterlimit="0" d="M91.28982 638.3026c-.39984 3.08725-.3637 6.07936 0 9m7.5-9c.39984 3.08725.3637 6.07936 0 9m-5.83334-9c-.1819 3.11994-.18985 6.10544 0 9m4.16667-9c.1819 3.11994.18985 6.10544 0 9m-2.08333-9v9" stroke-linecap="square" transform="matrix(1.2 0 0 1 14.1 0)"/>
    </g>
    <path fill="#e9cdba" d="M122.08585 638.3622c0-3.3137 2.6863-6 6-6s6 2.6863 6 6"/>
    <path fill="#1b2134" d="M134.08586 647.3622c0 3.3137-2.6863 6-6 6s-6-2.6863-6-6"/>
    <g fill="#14333b">
      <path d="M126.58586 634.8622c-.27614 0-.5.22387-.5.5v1c0 .27615.22386.5.5.5s.5-.22385.5-.5v-1c0-.27613-.22386-.5-.5-.5zm2 0c-.27614 0-.5.22387-.5.5v1c0 .27615.22386.5.5.5s.5-.22385.5-.5v-1c0-.27613-.22386-.5-.5-.5z"/>
    </g>
    <path fill="none" stroke="#312743" stroke-width="1.25" d="M121.60402 645.85368c.7513.24307 1.88308-1.06838 2.45316-2.36452" stroke-linecap="round" stroke-linejoin="round"/>
    <circle cx="126.08585" cy="637.36218" r=".5" fill="#e0a4a1"/>
    <g>
      <path fill="#ca8b17" d="M125.2488 637.08676l.14555 1.1299-1.1299.14554 1.25216 13.62246c.0657 1.29828-.8018 2.41628-2.0373 2.57542-1.56.20095-2.3123-.47996-2.6941-1.96597l-1.2491-5.082c-.1501-.611-1.0592-.6595-1.5809-.3079l4.0681-2.5722c-.5217.3517-.3997.9585-.3078 1.5809l.9059 6.1448c.0402.312.3257.5324.6378.4922.312-.0402.53237-.3257.49218-.6377l-.6166-13.7043c-.08035-.624.36037-1.195.9844-1.2754l1.1299-.1455z"/>
      <path fill="#231804" d="M125.24894 637.08774l.14554 1.1299 2.2598-.29108"/>
    </g>
    <path fill="none" stroke="#312743" stroke-width="1.25" d="M132.44526 641.5792c1.6406 2.9606-.19393 5.30335-1.81163 5.72343-2.9233.75913-5.54192.0595-5.54192.0595" stroke-linecap="round" stroke-linejoin="round"/>
    <circle cx="103.08585" cy="635.36218" r=".5" fill="#e1b3d0"/>
    <circle cx="129.08585" cy="637.36218" r=".5" fill="#e0a4a1"/>
  </g>
  <g fill="#b6e1c7">
    <path d="M5.50475 100v-1.52388c0-.27876-.22598-.50475-.50475-.50475-.27877 0-.50475.226-.50475.50475v1.5239M7.0095 100L7 97c-.00088-.27874-.22598-.50474-.50475-.50474-.27877 0-.50563.226-.50475.50475L6 100m2.50475 0v-1c0-.27875-.22598-.50474-.50475-.50474-.27877 0-.50475.226-.50475.50475v1M64 100v-1.52388c0-.27876-.22598-.50475-.50475-.50475-.27877 0-.50475.226-.50475.50475v1.5239M65.50475 100l-.0095-3c-.00088-.27874-.22598-.50474-.50475-.50474-.27877 0-.50563.226-.50475.50475l.0095 3M67 100v-1c0-.27875-.22598-.50474-.50475-.50474-.27877 0-.50475.226-.50475.50475v1m37.50475 0v-1.5238c0-.2787-.22598-.5047-.50475-.5047-.27877 0-.50475.226-.50475.5048v1.5239M105 100l-.01-3c-.00088-.27874-.22598-.50474-.50475-.50474-.27877 0-.50563.226-.50475.50475l.009 3m2.50575 0v-1c0-.2787-.22598-.5047-.50475-.5047-.27877 0-.50475.226-.50475.5048v1m21.50475 0v-1.5239c0-.2787.22598-.5047.50475-.5047.27877 0 .50475.226.50475.5048v1.5239M125.48575 100l.01-3c.00088-.27874.22598-.50474.50475-.50474.27877 0 .50563.226.50475.50475l-.01 3m-2.50475 0v-1c0-.2787.22598-.5047.50475-.5047.27877 0 .50475.226.50475.5048v1m-39.48525 0v-1.5239c0-.2787-.22598-.5047-.50475-.5047-.27877 0-.50475.226-.50475.5048v1.5239M87.0195 100l-.01-3c-.00088-.27874-.22598-.50474-.50475-.50474-.27877 0-.50563.226-.50475.50475l.01 3m2.50475 0v-1c0-.2787-.22598-.5047-.50475-.5047-.27877 0-.50475.226-.50475.5048v1m71.99 0v-1.5239c0-.2787-.22598-.5047-.50475-.5047-.27877 0-.50475.226-.50475.5048v1.5239M161 100l-.01-3c-.00088-.27874-.22598-.50474-.50475-.50474-.27877 0-.50563.226-.50475.50475l.01 3m2.50475 0v-1c0-.2787-.22598-.5047-.50475-.5047-.27877 0-.50475.226-.50475.5048v1m12 0v-1.5239c0-.2787.22598-.5047.50475-.5047.27877 0 .50475.226.50475.5048v1.5239M171.981 100l.01-3c.00088-.27874.22598-.50474.50475-.50474.27877 0 .50563.226.50475.50475l-.01 3m-2.50475 0v-1c0-.2787.22598-.5047.50475-.5047.27877 0 .50475.226.50475.5048v1"/>
    <path d="M0 100h180v19.99998H0z"/>
    <path d="M35.99525 100v-1.52388c0-.27876.22598-.50475.50475-.50475.27877 0 .50475.226.50475.50475v1.5239M34.4905 100l.0095-3c.00088-.27874.22598-.50474.50475-.50474.27877 0 .50563.226.50475.50475l-.0095 3m-2.50475 0v-1c0-.2787.22598-.5047.50475-.5047.27877 0 .50475.226.50475.5048v1"/>
  </g>
</svg>
